{
  "TestSuite": "Checkout Flow",
  "TestCaseName2": "Checkout Flow until Replace Contact",

  "VerifyText": [{
    "Activate_Now_Button_Name": "Attivare ora",
    "Discover_More_Button_Name": "Discover More",
    "Tab_Title": "What phone number will you use?",
    "PlanName": "Vodafone Digital",
    "Checkout_Btn_Name" : "Riepilogo",
    "Document_dropdown_value" : "Passport",
    "preferred_contact_method" : "T" ,
    "preferred_contact_time" : "Morning",
    "City_search_text":"mil",
    "Street_search_text": "via",
    "select_first_default_number":"yes",
    "select_nth_default_number":"1",
    "want_to_portin":"yes",
    "Service_provider":"Conad Mobile",
    "haveSIMnumber":"yes",
    "SIM_number":"8939880000000000101",
    "click_subscription_rechagable":"Subscription_0",
    "rechargable_checkbox_value":"checked"
    
  }]
}

  
